{"name":"List users","id":"reqres-api-testing;list-users","testSteps":[{"number":1,"description":"When I send a GET request to \"api/users?page\u003d2\"","duration":3916,"startTime":"2025-07-08T17:42:21.293436300-05:00[America/Bogota]","result":"SUCCESS","precondition":false,"level":0,"children":[{"number":2,"description":"Aleblanco get users","duration":3618,"startTime":"2025-07-08T17:42:21.587687700-05:00[America/Bogota]","result":"SUCCESS","precondition":false,"level":1,"children":[{"number":3,"description":"Aleblanco executes a GET on the resource api/users?page\u003d2","duration":3025,"startTime":"2025-07-08T17:42:21.681042500-05:00[America/Bogota]","result":"SUCCESS","precondition":false,"level":2,"children":[{"number":4,"description":"GET https://reqres.in/api/users?page\u003d2","duration":1,"startTime":"2025-07-08T17:42:24.704785500-05:00[America/Bogota]","result":"SUCCESS","restQuery":{"method":"GET","path":"https://reqres.in/api/users?page\u003d2","content":"","contentType":"application/json","requestHeaders":"Accept\u003d*/*\r\n\t\t\t\tContent-Type\u003dapplication/json","requestCookies":"","responseHeaders":"Date: Tue, 08 Jul 2025 22:42:24 GMT\r\nContent-Type: application/json; charset\u003dutf-8\r\nContent-Length: 72\r\nConnection: keep-alive\r\nCF-RAY: 95c31834ec0cf436-MIA\r\nReport-To: {\"group\":\"heroku-nel\",\"max_age\":3600,\"endpoints\":[{\"url\":\"https://nel.heroku.com/reports?ts\u003d1752014544\u0026sid\u003dc4c9725f-1ab0-44d8-820f-430df2718e11\u0026s\u003dPUwNWqZCxH9IYA4RSWDZo6t0z7a7pwcu4D9cJFjDmVM%3D\"}]}\r\nReporting-Endpoints: heroku-nel\u003dhttps://nel.heroku.com/reports?ts\u003d1752014544\u0026sid\u003dc4c9725f-1ab0-44d8-820f-430df2718e11\u0026s\u003dPUwNWqZCxH9IYA4RSWDZo6t0z7a7pwcu4D9cJFjDmVM%3D\r\nNel: {\"report_to\":\"heroku-nel\",\"max_age\":3600,\"success_fraction\":0.005,\"failure_fraction\":0.05,\"response_headers\":[\"Via\"]}\r\nAccess-Control-Allow-Origin: *\r\nX-Request-Id: 392a3af9-b82f-4789-a7ec-e03230e42cb8\r\nX-Content-Type-Options: nosniff\r\nX-Frame-Options: DENY\r\nX-Xss-Protection: 1; mode\u003dblock\r\nReferrer-Policy: strict-origin-when-cross-origin\r\nRatelimit-Policy: 100;w\u003d60\r\nRatelimit-Limit: 100\r\nRatelimit-Remaining: 99\r\nRatelimit-Reset: 60\r\nEtag: W/\"48-+Z5A4MsbyryWjwqUCtZ7548heDc\"\r\nVia: 1.1 vegur\r\nCF-Cache-Status: BYPASS\r\nVary: Accept-Encoding\r\nServer: cloudflare\r\nserver-timing: cfL4;desc\u003d\"?proto\u003dTCP\u0026rtt\u003d66651\u0026min_rtt\u003d62561\u0026rtt_var\u003d24820\u0026sent\u003d6\u0026recv\u003d6\u0026lost\u003d0\u0026retrans\u003d0\u0026sent_bytes\u003d3106\u0026recv_bytes\u003d703\u0026delivery_rate\u003d53482\u0026cwnd\u003d252\u0026unsent_bytes\u003d0\u0026cid\u003d5d79ff1578a25c72\u0026ts\u003d393\u0026x\u003d0\"\r","responseCookies":"\r","responseBody":"{\n    \"error\": \"Missing API key.\",\n    \"how_to_get_one\": \"https://reqres.in/signup\"\n}","statusCode":401},"precondition":false,"level":3}]},{"number":5,"description":"Aleblanco executes a GET on the resource api/users?page\u003d2","duration":485,"startTime":"2025-07-08T17:42:24.713920100-05:00[America/Bogota]","result":"SUCCESS","precondition":false,"level":2,"children":[{"number":6,"description":"GET https://reqres.in/api/users?page\u003d2","duration":0,"startTime":"2025-07-08T17:42:25.198998900-05:00[America/Bogota]","result":"SUCCESS","restQuery":{"method":"GET","path":"https://reqres.in/api/users?page\u003d2","content":"","contentType":"application/json","requestHeaders":"x-api-key\u003dreqres-free-v1\r\n\t\t\t\tAccept\u003d*/*\r\n\t\t\t\tContent-Type\u003dapplication/json","requestCookies":"","responseHeaders":"Date: Tue, 08 Jul 2025 22:42:24 GMT\r\nContent-Type: application/json; charset\u003dutf-8\r\nTransfer-Encoding: chunked\r\nConnection: keep-alive\r\nContent-Encoding: gzip\r\nReport-To: {\"group\":\"heroku-nel\",\"max_age\":3600,\"endpoints\":[{\"url\":\"https://nel.heroku.com/reports?ts\u003d1752014544\u0026sid\u003dc4c9725f-1ab0-44d8-820f-430df2718e11\u0026s\u003dPUwNWqZCxH9IYA4RSWDZo6t0z7a7pwcu4D9cJFjDmVM%3D\"}]}\r\nReporting-Endpoints: heroku-nel\u003dhttps://nel.heroku.com/reports?ts\u003d1752014544\u0026sid\u003dc4c9725f-1ab0-44d8-820f-430df2718e11\u0026s\u003dPUwNWqZCxH9IYA4RSWDZo6t0z7a7pwcu4D9cJFjDmVM%3D\r\nNel: {\"report_to\":\"heroku-nel\",\"max_age\":3600,\"success_fraction\":0.005,\"failure_fraction\":0.05,\"response_headers\":[\"Via\"]}\r\nAccess-Control-Allow-Origin: *\r\nX-Request-Id: f7a589ec-adcc-4d79-8ffb-d97f82ca8b65\r\nX-Content-Type-Options: nosniff\r\nX-Frame-Options: DENY\r\nX-Xss-Protection: 1; mode\u003dblock\r\nReferrer-Policy: strict-origin-when-cross-origin\r\nRatelimit-Policy: 100;w\u003d60\r\nRatelimit-Limit: 100\r\nRatelimit-Remaining: 97\r\nRatelimit-Reset: 60\r\nEtag: W/\"440-ZjsmMKR8P3usr2uJZbOCGCxC3Uw\"\r\nVia: 1.1 vegur\r\nCache-Control: max-age\u003d14400\r\nCF-Cache-Status: MISS\r\nVary: Accept-Encoding\r\nServer: cloudflare\r\nCF-RAY: 95c318383ba77497-MIA\r\nserver-timing: cfL4;desc\u003d\"?proto\u003dTCP\u0026rtt\u003d70430\u0026min_rtt\u003d66375\u0026rtt_var\u003d21401\u0026sent\u003d5\u0026recv\u003d6\u0026lost\u003d0\u0026retrans\u003d0\u0026sent_bytes\u003d3106\u0026recv_bytes\u003d730\u0026delivery_rate\u003d59908\u0026cwnd\u003d39\u0026unsent_bytes\u003d0\u0026cid\u003d3250a60e87076b0d\u0026ts\u003d310\u0026x\u003d0\"\r","responseCookies":"\r","responseBody":"{\n    \"page\": 2,\n    \"per_page\": 6,\n    \"total\": 12,\n    \"total_pages\": 2,\n    \"data\": [\n        {\n            \"id\": 7,\n            \"email\": \"michael.lawson@reqres.in\",\n            \"first_name\": \"Michael\",\n            \"last_name\": \"Lawson\",\n            \"avatar\": \"https://reqres.in/img/faces/7-image.jpg\"\n        },\n        {\n            \"id\": 8,\n            \"email\": \"lindsay.ferguson@reqres.in\",\n            \"first_name\": \"Lindsay\",\n            \"last_name\": \"Ferguson\",\n            \"avatar\": \"https://reqres.in/img/faces/8-image.jpg\"\n        },\n        {\n            \"id\": 9,\n            \"email\": \"tobias.funke@reqres.in\",\n            \"first_name\": \"Tobias\",\n            \"last_name\": \"Funke\",\n            \"avatar\": \"https://reqres.in/img/faces/9-image.jpg\"\n        },\n        {\n            \"id\": 10,\n            \"email\": \"byron.fields@reqres.in\",\n            \"first_name\": \"Byron\",\n            \"last_name\": \"Fields\",\n            \"avatar\": \"https://reqres.in/img/faces/10-image.jpg\"\n        },\n        {\n            \"id\": 11,\n            \"email\": \"george.edwards@reqres.in\",\n            \"first_name\": \"George\",\n            \"last_name\": \"Edwards\",\n            \"avatar\": \"https://reqres.in/img/faces/11-image.jpg\"\n        },\n        {\n            \"id\": 12,\n            \"email\": \"rachel.howell@reqres.in\",\n            \"first_name\": \"Rachel\",\n            \"last_name\": \"Howell\",\n            \"avatar\": \"https://reqres.in/img/faces/12-image.jpg\"\n        }\n    ],\n    \"support\": {\n        \"url\": \"https://contentcaddy.io?utm_source\u003dreqres\u0026utm_medium\u003djson\u0026utm_campaign\u003dreferral\",\n        \"text\": \"Tired of writing endless social media content? Let Content Caddy generate it for you.\"\n    }\n}","statusCode":200},"precondition":false,"level":3}]}]}]},{"number":7,"description":"Then the response status code should be 200","duration":111,"startTime":"2025-07-08T17:42:25.211200400-05:00[America/Bogota]","result":"SUCCESS","precondition":false,"level":0,"children":[{"number":8,"description":"Then apis questions$$ lambda$888/0x000000084069e440 should be (200)","duration":3,"startTime":"2025-07-08T17:42:25.317748400-05:00[America/Bogota]","result":"SUCCESS","precondition":false,"level":1}]}],"userStory":{"id":"reqres-api-testing","storyName":"Reqres API Testing","displayName":"Reqres API Testing","path":"api/reqres/testing_api.feature","narrative":"  Testing different REST endpoints of Reqres API to validate expected behavior","type":"feature","qualifiedTag":{"name":"Reqres/Reqres API Testing","type":"feature","displayName":"Reqres/Reqres API Testing"}},"featureTag":{"name":"Reqres/Reqres API Testing","type":"feature","displayName":"Reqres/Reqres API Testing"},"title":"List users","description":"","tags":[{"name":"Reqres/Reqres API Testing","type":"feature","displayName":"Reqres API Testing"},{"name":"all","type":"tag","displayName":"all"},{"name":"get","type":"tag","displayName":"get"},{"name":"Api/Reqres","type":"capability","displayName":"Reqres"},{"name":"Api","type":"theme","displayName":"Api"}],"allTags":[{"name":"Reqres/Reqres API Testing","type":"feature","displayName":"Reqres API Testing"},{"name":"all","type":"tag","displayName":"all"},{"name":"get","type":"tag","displayName":"get"},{"name":"Api/Reqres","type":"capability","displayName":"Reqres"},{"name":"Api","type":"theme","displayName":"Api"}],"startTime":"2025-07-08T17:42:21.048906100-05:00[America/Bogota]","duration":4275,"projectKey":"","isManualTestingUpToDate":false,"context":"windows","manual":false,"testSource":"Cucumber","actors":[{"name":"Aleblanco","can":["browse the web","call an API at https://reqres.in/"]}],"result":"SUCCESS"}