{"name":"Get list users","id":"reqres-api-testing;get-list-users","testSteps":[{"number":1,"description":"When I get user information from \"api/users?page\u003d2\"","duration":3293,"startTime":"2025-07-08T20:51:33.898876900-05:00[America/Bogota]","result":"SUCCESS","precondition":false,"level":0,"children":[{"number":2,"description":"Aleblanco get users","duration":3006,"startTime":"2025-07-08T20:51:34.182240100-05:00[America/Bogota]","result":"SUCCESS","precondition":false,"level":1,"children":[{"number":3,"description":"Aleblanco executes a GET on the resource api/users?page\u003d2","duration":2618,"startTime":"2025-07-08T20:51:34.278774-05:00[America/Bogota]","result":"SUCCESS","precondition":false,"level":2,"children":[{"number":4,"description":"GET https://reqres.in/api/users?page\u003d2","duration":0,"startTime":"2025-07-08T20:51:36.895560400-05:00[America/Bogota]","result":"SUCCESS","restQuery":{"method":"GET","path":"https://reqres.in/api/users?page\u003d2","content":"","contentType":"application/json","requestHeaders":"Accept\u003d*/*\r\n\t\t\t\tContent-Type\u003dapplication/json","requestCookies":"","responseHeaders":"Date: Wed, 09 Jul 2025 01:51:36 GMT\r\nContent-Type: application/json; charset\u003dutf-8\r\nTransfer-Encoding: chunked\r\nConnection: keep-alive\r\nContent-Encoding: gzip\r\nReport-To: {\"group\":\"heroku-nel\",\"max_age\":3600,\"endpoints\":[{\"url\":\"https://nel.heroku.com/reports?ts\u003d1752022815\u0026sid\u003dc4c9725f-1ab0-44d8-820f-430df2718e11\u0026s\u003duQon3JjndSUpr5vuvenaHGyEdXcMt0SxNkAcV6%2BE2vs%3D\"}]}\r\nReporting-Endpoints: heroku-nel\u003dhttps://nel.heroku.com/reports?ts\u003d1752022815\u0026sid\u003dc4c9725f-1ab0-44d8-820f-430df2718e11\u0026s\u003duQon3JjndSUpr5vuvenaHGyEdXcMt0SxNkAcV6%2BE2vs%3D\r\nNel: {\"report_to\":\"heroku-nel\",\"max_age\":3600,\"success_fraction\":0.005,\"failure_fraction\":0.05,\"response_headers\":[\"Via\"]}\r\nAccess-Control-Allow-Origin: *\r\nX-Request-Id: 5d462453-7c18-46d4-bb42-cc31e9247b8d\r\nX-Content-Type-Options: nosniff\r\nX-Frame-Options: DENY\r\nX-Xss-Protection: 1; mode\u003dblock\r\nReferrer-Policy: strict-origin-when-cross-origin\r\nRatelimit-Policy: 100;w\u003d60\r\nRatelimit-Limit: 100\r\nRatelimit-Remaining: 98\r\nRatelimit-Reset: 60\r\nEtag: W/\"440-ZjsmMKR8P3usr2uJZbOCGCxC3Uw\"\r\nVia: 1.1 vegur\r\nCache-Control: max-age\u003d14400\r\nCF-Cache-Status: HIT\r\nAge: 3081\r\nVary: Accept-Encoding\r\nServer: cloudflare\r\nCF-RAY: 95c42d5d78047498-MIA\r\nserver-timing: cfL4;desc\u003d\"?proto\u003dTCP\u0026rtt\u003d65448\u0026min_rtt\u003d64608\u0026rtt_var\u003d24828\u0026sent\u003d6\u0026recv\u003d6\u0026lost\u003d0\u0026retrans\u003d0\u0026sent_bytes\u003d3107\u0026recv_bytes\u003d703\u0026delivery_rate\u003d67793\u0026cwnd\u003d59\u0026unsent_bytes\u003d0\u0026cid\u003d8a535c8a9440af63\u0026ts\u003d198\u0026x\u003d0\"\r","responseCookies":"\r","responseBody":"{\n    \"page\": 2,\n    \"per_page\": 6,\n    \"total\": 12,\n    \"total_pages\": 2,\n    \"data\": [\n        {\n            \"id\": 7,\n            \"email\": \"michael.lawson@reqres.in\",\n            \"first_name\": \"Michael\",\n            \"last_name\": \"Lawson\",\n            \"avatar\": \"https://reqres.in/img/faces/7-image.jpg\"\n        },\n        {\n            \"id\": 8,\n            \"email\": \"lindsay.ferguson@reqres.in\",\n            \"first_name\": \"Lindsay\",\n            \"last_name\": \"Ferguson\",\n            \"avatar\": \"https://reqres.in/img/faces/8-image.jpg\"\n        },\n        {\n            \"id\": 9,\n            \"email\": \"tobias.funke@reqres.in\",\n            \"first_name\": \"Tobias\",\n            \"last_name\": \"Funke\",\n            \"avatar\": \"https://reqres.in/img/faces/9-image.jpg\"\n        },\n        {\n            \"id\": 10,\n            \"email\": \"byron.fields@reqres.in\",\n            \"first_name\": \"Byron\",\n            \"last_name\": \"Fields\",\n            \"avatar\": \"https://reqres.in/img/faces/10-image.jpg\"\n        },\n        {\n            \"id\": 11,\n            \"email\": \"george.edwards@reqres.in\",\n            \"first_name\": \"George\",\n            \"last_name\": \"Edwards\",\n            \"avatar\": \"https://reqres.in/img/faces/11-image.jpg\"\n        },\n        {\n            \"id\": 12,\n            \"email\": \"rachel.howell@reqres.in\",\n            \"first_name\": \"Rachel\",\n            \"last_name\": \"Howell\",\n            \"avatar\": \"https://reqres.in/img/faces/12-image.jpg\"\n        }\n    ],\n    \"support\": {\n        \"url\": \"https://contentcaddy.io?utm_source\u003dreqres\u0026utm_medium\u003djson\u0026utm_campaign\u003dreferral\",\n        \"text\": \"Tired of writing endless social media content? Let Content Caddy generate it for you.\"\n    }\n}","statusCode":200},"precondition":false,"level":3}]},{"number":5,"description":"Aleblanco executes a GET on the resource api/users?page\u003d2","duration":266,"startTime":"2025-07-08T20:51:36.905526700-05:00[America/Bogota]","result":"SUCCESS","precondition":false,"level":2,"children":[{"number":6,"description":"GET https://reqres.in/api/users?page\u003d2","duration":0,"startTime":"2025-07-08T20:51:37.171119500-05:00[America/Bogota]","result":"SUCCESS","restQuery":{"method":"GET","path":"https://reqres.in/api/users?page\u003d2","content":"","contentType":"application/json","requestHeaders":"x-api-key\u003dreqres-free-v1\r\n\t\t\t\tAccept\u003d*/*\r\n\t\t\t\tContent-Type\u003dapplication/json","requestCookies":"","responseHeaders":"Date: Wed, 09 Jul 2025 01:51:36 GMT\r\nContent-Type: application/json; charset\u003dutf-8\r\nTransfer-Encoding: chunked\r\nConnection: keep-alive\r\nContent-Encoding: gzip\r\nReport-To: {\"group\":\"heroku-nel\",\"max_age\":3600,\"endpoints\":[{\"url\":\"https://nel.heroku.com/reports?ts\u003d1752022815\u0026sid\u003dc4c9725f-1ab0-44d8-820f-430df2718e11\u0026s\u003duQon3JjndSUpr5vuvenaHGyEdXcMt0SxNkAcV6%2BE2vs%3D\"}]}\r\nReporting-Endpoints: heroku-nel\u003dhttps://nel.heroku.com/reports?ts\u003d1752022815\u0026sid\u003dc4c9725f-1ab0-44d8-820f-430df2718e11\u0026s\u003duQon3JjndSUpr5vuvenaHGyEdXcMt0SxNkAcV6%2BE2vs%3D\r\nNel: {\"report_to\":\"heroku-nel\",\"max_age\":3600,\"success_fraction\":0.005,\"failure_fraction\":0.05,\"response_headers\":[\"Via\"]}\r\nAccess-Control-Allow-Origin: *\r\nX-Request-Id: 5d462453-7c18-46d4-bb42-cc31e9247b8d\r\nX-Content-Type-Options: nosniff\r\nX-Frame-Options: DENY\r\nX-Xss-Protection: 1; mode\u003dblock\r\nReferrer-Policy: strict-origin-when-cross-origin\r\nRatelimit-Policy: 100;w\u003d60\r\nRatelimit-Limit: 100\r\nRatelimit-Remaining: 98\r\nRatelimit-Reset: 60\r\nEtag: W/\"440-ZjsmMKR8P3usr2uJZbOCGCxC3Uw\"\r\nVia: 1.1 vegur\r\nCache-Control: max-age\u003d14400\r\nCF-Cache-Status: HIT\r\nAge: 3081\r\nVary: Accept-Encoding\r\nServer: cloudflare\r\nCF-RAY: 95c42d5fc9291f08-MIA\r\nserver-timing: cfL4;desc\u003d\"?proto\u003dTCP\u0026rtt\u003d59126\u0026min_rtt\u003d58927\u0026rtt_var\u003d22497\u0026sent\u003d5\u0026recv\u003d6\u0026lost\u003d0\u0026retrans\u003d0\u0026sent_bytes\u003d3106\u0026recv_bytes\u003d730\u0026delivery_rate\u003d72366\u0026cwnd\u003d235\u0026unsent_bytes\u003d0\u0026cid\u003d258134c149605554\u0026ts\u003d108\u0026x\u003d0\"\r","responseCookies":"\r","responseBody":"{\n    \"page\": 2,\n    \"per_page\": 6,\n    \"total\": 12,\n    \"total_pages\": 2,\n    \"data\": [\n        {\n            \"id\": 7,\n            \"email\": \"michael.lawson@reqres.in\",\n            \"first_name\": \"Michael\",\n            \"last_name\": \"Lawson\",\n            \"avatar\": \"https://reqres.in/img/faces/7-image.jpg\"\n        },\n        {\n            \"id\": 8,\n            \"email\": \"lindsay.ferguson@reqres.in\",\n            \"first_name\": \"Lindsay\",\n            \"last_name\": \"Ferguson\",\n            \"avatar\": \"https://reqres.in/img/faces/8-image.jpg\"\n        },\n        {\n            \"id\": 9,\n            \"email\": \"tobias.funke@reqres.in\",\n            \"first_name\": \"Tobias\",\n            \"last_name\": \"Funke\",\n            \"avatar\": \"https://reqres.in/img/faces/9-image.jpg\"\n        },\n        {\n            \"id\": 10,\n            \"email\": \"byron.fields@reqres.in\",\n            \"first_name\": \"Byron\",\n            \"last_name\": \"Fields\",\n            \"avatar\": \"https://reqres.in/img/faces/10-image.jpg\"\n        },\n        {\n            \"id\": 11,\n            \"email\": \"george.edwards@reqres.in\",\n            \"first_name\": \"George\",\n            \"last_name\": \"Edwards\",\n            \"avatar\": \"https://reqres.in/img/faces/11-image.jpg\"\n        },\n        {\n            \"id\": 12,\n            \"email\": \"rachel.howell@reqres.in\",\n            \"first_name\": \"Rachel\",\n            \"last_name\": \"Howell\",\n            \"avatar\": \"https://reqres.in/img/faces/12-image.jpg\"\n        }\n    ],\n    \"support\": {\n        \"url\": \"https://contentcaddy.io?utm_source\u003dreqres\u0026utm_medium\u003djson\u0026utm_campaign\u003dreferral\",\n        \"text\": \"Tired of writing endless social media content? Let Content Caddy generate it for you.\"\n    }\n}","statusCode":200},"precondition":false,"level":3}]}]}]},{"number":7,"description":"Then the response status code should be 200","duration":114,"startTime":"2025-07-08T20:51:37.192944100-05:00[America/Bogota]","result":"SUCCESS","precondition":false,"level":0,"children":[{"number":8,"description":"Then apis questions$$ lambda$888/0x000000084069e440 should be (200)","duration":3,"startTime":"2025-07-08T20:51:37.301403300-05:00[America/Bogota]","result":"SUCCESS","precondition":false,"level":1}]}],"userStory":{"id":"reqres-api-testing","storyName":"Reqres API Testing","displayName":"Reqres API Testing","path":"api/reqres/testing_api.feature","narrative":"  Testing different REST endpoints of Reqres API to validate expected behavior","type":"feature","qualifiedTag":{"name":"Reqres/Reqres API Testing","type":"feature","displayName":"Reqres/Reqres API Testing"}},"featureTag":{"name":"Reqres/Reqres API Testing","type":"feature","displayName":"Reqres/Reqres API Testing"},"title":"Get list users","description":"","tags":[{"name":"Reqres/Reqres API Testing","type":"feature","displayName":"Reqres API Testing"},{"name":"all","type":"tag","displayName":"all"},{"name":"get","type":"tag","displayName":"get"},{"name":"Api/Reqres","type":"capability","displayName":"Reqres"},{"name":"Api","type":"theme","displayName":"Api"}],"allTags":[{"name":"Reqres/Reqres API Testing","type":"feature","displayName":"Reqres API Testing"},{"name":"all","type":"tag","displayName":"all"},{"name":"get","type":"tag","displayName":"get"},{"name":"Api/Reqres","type":"capability","displayName":"Reqres"},{"name":"Api","type":"theme","displayName":"Api"}],"startTime":"2025-07-08T20:51:33.663183300-05:00[America/Bogota]","duration":3646,"projectKey":"","isManualTestingUpToDate":false,"context":"windows","manual":false,"testSource":"Cucumber","actors":[{"name":"Aleblanco","can":["browse the web","call an API at https://reqres.in/"]}],"result":"SUCCESS"}