{"name":"Get delayed response","id":"reqres-api-testing;get-delayed-response","testSteps":[{"number":1,"description":"When I get user information from \"api/users?delay\u003d3\"","duration":7044,"startTime":"2025-07-08T20:51:41.356781100-05:00[America/Bogota]","result":"SUCCESS","precondition":false,"level":0,"children":[{"number":2,"description":"Aleblanco get users","duration":7038,"startTime":"2025-07-08T20:51:41.359049100-05:00[America/Bogota]","result":"SUCCESS","precondition":false,"level":1,"children":[{"number":3,"description":"Aleblanco executes a GET on the resource api/users?delay\u003d3","duration":3433,"startTime":"2025-07-08T20:51:41.361059600-05:00[America/Bogota]","result":"SUCCESS","precondition":false,"level":2,"children":[{"number":4,"description":"GET https://reqres.in/api/users?delay\u003d3","duration":0,"startTime":"2025-07-08T20:51:44.794895200-05:00[America/Bogota]","result":"SUCCESS","restQuery":{"method":"GET","path":"https://reqres.in/api/users?delay\u003d3","content":"","contentType":"application/json","requestHeaders":"Accept\u003d*/*\r\n\t\t\t\tContent-Type\u003dapplication/json","requestCookies":"","responseHeaders":"Date: Wed, 09 Jul 2025 01:51:44 GMT\r\nContent-Type: application/json; charset\u003dutf-8\r\nContent-Length: 72\r\nConnection: keep-alive\r\nCF-RAY: 95c42d7b8966a407-MIA\r\nReport-To: {\"group\":\"heroku-nel\",\"max_age\":3600,\"endpoints\":[{\"url\":\"https://nel.heroku.com/reports?ts\u003d1752025901\u0026sid\u003dc4c9725f-1ab0-44d8-820f-430df2718e11\u0026s\u003d9EztpRRW5eTcM1pcVx5Nvzyn9c5ObvAT0ZIvzg7CDXY%3D\"}]}\r\nReporting-Endpoints: heroku-nel\u003dhttps://nel.heroku.com/reports?ts\u003d1752025901\u0026sid\u003dc4c9725f-1ab0-44d8-820f-430df2718e11\u0026s\u003d9EztpRRW5eTcM1pcVx5Nvzyn9c5ObvAT0ZIvzg7CDXY%3D\r\nNel: {\"report_to\":\"heroku-nel\",\"max_age\":3600,\"success_fraction\":0.005,\"failure_fraction\":0.05,\"response_headers\":[\"Via\"]}\r\nAccess-Control-Allow-Origin: *\r\nX-Request-Id: 43eb1489-2b1d-484b-aafd-e5628ab3bfd8\r\nX-Content-Type-Options: nosniff\r\nX-Frame-Options: DENY\r\nX-Xss-Protection: 1; mode\u003dblock\r\nReferrer-Policy: strict-origin-when-cross-origin\r\nRatelimit-Policy: 100;w\u003d60\r\nRatelimit-Limit: 100\r\nRatelimit-Remaining: 93\r\nRatelimit-Reset: 57\r\nEtag: W/\"48-+Z5A4MsbyryWjwqUCtZ7548heDc\"\r\nVia: 1.1 vegur\r\ncf-cache-status: DYNAMIC\r\nServer: cloudflare\r\nserver-timing: cfL4;desc\u003d\"?proto\u003dTCP\u0026rtt\u003d66162\u0026min_rtt\u003d58865\u0026rtt_var\u003d27287\u0026sent\u003d5\u0026recv\u003d6\u0026lost\u003d0\u0026retrans\u003d0\u0026sent_bytes\u003d3106\u0026recv_bytes\u003d704\u0026delivery_rate\u003d74407\u0026cwnd\u003d235\u0026unsent_bytes\u003d0\u0026cid\u003de22d58d9f971e51e\u0026ts\u003d3286\u0026x\u003d0\"\r","responseCookies":"\r","responseBody":"{\n    \"error\": \"Missing API key.\",\n    \"how_to_get_one\": \"https://reqres.in/signup\"\n}","statusCode":401},"precondition":false,"level":3}]},{"number":5,"description":"Aleblanco executes a GET on the resource api/users?delay\u003d3","duration":3597,"startTime":"2025-07-08T20:51:44.799387200-05:00[America/Bogota]","result":"SUCCESS","precondition":false,"level":2,"children":[{"number":6,"description":"GET https://reqres.in/api/users?delay\u003d3","duration":0,"startTime":"2025-07-08T20:51:48.395854800-05:00[America/Bogota]","result":"SUCCESS","restQuery":{"method":"GET","path":"https://reqres.in/api/users?delay\u003d3","content":"","contentType":"application/json","requestHeaders":"x-api-key\u003dreqres-free-v1\r\n\t\t\t\tAccept\u003d*/*\r\n\t\t\t\tContent-Type\u003dapplication/json","requestCookies":"","responseHeaders":"Date: Wed, 09 Jul 2025 01:51:48 GMT\r\nContent-Type: application/json; charset\u003dutf-8\r\nTransfer-Encoding: chunked\r\nConnection: keep-alive\r\nContent-Encoding: gzip\r\nReport-To: {\"group\":\"heroku-nel\",\"max_age\":3600,\"endpoints\":[{\"url\":\"https://nel.heroku.com/reports?ts\u003d1752025905\u0026sid\u003dc4c9725f-1ab0-44d8-820f-430df2718e11\u0026s\u003dcvLfPQtv2Qd8FibndsaZSAEGmH%2Blz8lir1c6eTKJHVY%3D\"}]}\r\nReporting-Endpoints: heroku-nel\u003dhttps://nel.heroku.com/reports?ts\u003d1752025905\u0026sid\u003dc4c9725f-1ab0-44d8-820f-430df2718e11\u0026s\u003dcvLfPQtv2Qd8FibndsaZSAEGmH%2Blz8lir1c6eTKJHVY%3D\r\nNel: {\"report_to\":\"heroku-nel\",\"max_age\":3600,\"success_fraction\":0.005,\"failure_fraction\":0.05,\"response_headers\":[\"Via\"]}\r\nAccess-Control-Allow-Origin: *\r\nX-Request-Id: cdd41975-4aa2-493b-bcca-af3be30f96e3\r\nX-Content-Type-Options: nosniff\r\nX-Frame-Options: DENY\r\nX-Xss-Protection: 1; mode\u003dblock\r\nReferrer-Policy: strict-origin-when-cross-origin\r\nRatelimit-Policy: 100;w\u003d60\r\nRatelimit-Limit: 100\r\nRatelimit-Remaining: 91\r\nRatelimit-Reset: 51\r\nEtag: W/\"41e-bY3U72nulxuwNd/TmihMEHjLmek\"\r\nVia: 1.1 vegur\r\ncf-cache-status: DYNAMIC\r\nServer: cloudflare\r\nCF-RAY: 95c42d915cff8da3-MIA\r\nserver-timing: cfL4;desc\u003d\"?proto\u003dTCP\u0026rtt\u003d73271\u0026min_rtt\u003d69572\u0026rtt_var\u003d33487\u0026sent\u003d5\u0026recv\u003d6\u0026lost\u003d0\u0026retrans\u003d0\u0026sent_bytes\u003d3105\u0026recv_bytes\u003d731\u0026delivery_rate\u003d44168\u0026cwnd\u003d49\u0026unsent_bytes\u003d0\u0026cid\u003dcbe210120f8e4242\u0026ts\u003d3337\u0026x\u003d0\"\r","responseCookies":"\r","responseBody":"{\n    \"page\": 1,\n    \"per_page\": 6,\n    \"total\": 12,\n    \"total_pages\": 2,\n    \"data\": [\n        {\n            \"id\": 1,\n            \"email\": \"george.bluth@reqres.in\",\n            \"first_name\": \"George\",\n            \"last_name\": \"Bluth\",\n            \"avatar\": \"https://reqres.in/img/faces/1-image.jpg\"\n        },\n        {\n            \"id\": 2,\n            \"email\": \"janet.weaver@reqres.in\",\n            \"first_name\": \"Janet\",\n            \"last_name\": \"Weaver\",\n            \"avatar\": \"https://reqres.in/img/faces/2-image.jpg\"\n        },\n        {\n            \"id\": 3,\n            \"email\": \"emma.wong@reqres.in\",\n            \"first_name\": \"Emma\",\n            \"last_name\": \"Wong\",\n            \"avatar\": \"https://reqres.in/img/faces/3-image.jpg\"\n        },\n        {\n            \"id\": 4,\n            \"email\": \"eve.holt@reqres.in\",\n            \"first_name\": \"Eve\",\n            \"last_name\": \"Holt\",\n            \"avatar\": \"https://reqres.in/img/faces/4-image.jpg\"\n        },\n        {\n            \"id\": 5,\n            \"email\": \"charles.morris@reqres.in\",\n            \"first_name\": \"Charles\",\n            \"last_name\": \"Morris\",\n            \"avatar\": \"https://reqres.in/img/faces/5-image.jpg\"\n        },\n        {\n            \"id\": 6,\n            \"email\": \"tracey.ramos@reqres.in\",\n            \"first_name\": \"Tracey\",\n            \"last_name\": \"Ramos\",\n            \"avatar\": \"https://reqres.in/img/faces/6-image.jpg\"\n        }\n    ],\n    \"support\": {\n        \"url\": \"https://contentcaddy.io?utm_source\u003dreqres\u0026utm_medium\u003djson\u0026utm_campaign\u003dreferral\",\n        \"text\": \"Tired of writing endless social media content? Let Content Caddy generate it for you.\"\n    }\n}","statusCode":200},"precondition":false,"level":3}]}]}]},{"number":7,"description":"Then the response status code should be 200","duration":11,"startTime":"2025-07-08T20:51:48.401833500-05:00[America/Bogota]","result":"SUCCESS","precondition":false,"level":0,"children":[{"number":8,"description":"Then apis questions$$ lambda$888/0x000000084069e440 should be (200)","duration":1,"startTime":"2025-07-08T20:51:48.409852900-05:00[America/Bogota]","result":"SUCCESS","precondition":false,"level":1}]}],"userStory":{"id":"reqres-api-testing","storyName":"Reqres API Testing","displayName":"Reqres API Testing","path":"api/reqres/testing_api.feature","narrative":"  Testing different REST endpoints of Reqres API to validate expected behavior","type":"feature","qualifiedTag":{"name":"Reqres/Reqres API Testing","type":"feature","displayName":"Reqres/Reqres API Testing"}},"featureTag":{"name":"Reqres/Reqres API Testing","type":"feature","displayName":"Reqres/Reqres API Testing"},"title":"Get delayed response","description":"","tags":[{"name":"Reqres/Reqres API Testing","type":"feature","displayName":"Reqres API Testing"},{"name":"all","type":"tag","displayName":"all"},{"name":"get","type":"tag","displayName":"get"},{"name":"Api/Reqres","type":"capability","displayName":"Reqres"},{"name":"Api","type":"theme","displayName":"Api"}],"allTags":[{"name":"Reqres/Reqres API Testing","type":"feature","displayName":"Reqres API Testing"},{"name":"all","type":"tag","displayName":"all"},{"name":"get","type":"tag","displayName":"get"},{"name":"Api/Reqres","type":"capability","displayName":"Reqres"},{"name":"Api","type":"theme","displayName":"Api"}],"startTime":"2025-07-08T20:51:41.349440300-05:00[America/Bogota]","duration":7064,"projectKey":"","isManualTestingUpToDate":false,"context":"windows","manual":false,"testSource":"Cucumber","actors":[{"name":"Aleblanco","can":["browse the web","call an API at https://reqres.in/"]}],"result":"SUCCESS"}