{"name":"Get list of resources","id":"reqres-api-testing;get-list-of-resources","testSteps":[{"number":1,"description":"When I get user information from \"api/unknown\"","duration":568,"startTime":"2025-07-08T20:51:39.039264-05:00[America/Bogota]","result":"SUCCESS","precondition":false,"level":0,"children":[{"number":2,"description":"Aleblanco get users","duration":563,"startTime":"2025-07-08T20:51:39.042254500-05:00[America/Bogota]","result":"SUCCESS","precondition":false,"level":1,"children":[{"number":3,"description":"Aleblanco executes a GET on the resource api/unknown","duration":267,"startTime":"2025-07-08T20:51:39.045700200-05:00[America/Bogota]","result":"SUCCESS","precondition":false,"level":2,"children":[{"number":4,"description":"GET https://reqres.in/api/unknown","duration":0,"startTime":"2025-07-08T20:51:39.313213600-05:00[America/Bogota]","result":"SUCCESS","restQuery":{"method":"GET","path":"https://reqres.in/api/unknown","content":"","contentType":"application/json","requestHeaders":"Accept\u003d*/*\r\n\t\t\t\tContent-Type\u003dapplication/json","requestCookies":"","responseHeaders":"Date: Wed, 09 Jul 2025 01:51:39 GMT\r\nContent-Type: application/json; charset\u003dutf-8\r\nTransfer-Encoding: chunked\r\nConnection: keep-alive\r\nContent-Encoding: gzip\r\nReport-To: {\"group\":\"heroku-nel\",\"max_age\":3600,\"endpoints\":[{\"url\":\"https://nel.heroku.com/reports?ts\u003d1752025039\u0026sid\u003dc4c9725f-1ab0-44d8-820f-430df2718e11\u0026s\u003dtLelf4aZ96rjg55WddoxrXxq3S2Gykt4dyGbZE4zR3U%3D\"}]}\r\nReporting-Endpoints: heroku-nel\u003dhttps://nel.heroku.com/reports?ts\u003d1752025039\u0026sid\u003dc4c9725f-1ab0-44d8-820f-430df2718e11\u0026s\u003dtLelf4aZ96rjg55WddoxrXxq3S2Gykt4dyGbZE4zR3U%3D\r\nNel: {\"report_to\":\"heroku-nel\",\"max_age\":3600,\"success_fraction\":0.005,\"failure_fraction\":0.05,\"response_headers\":[\"Via\"]}\r\nAccess-Control-Allow-Origin: *\r\nX-Request-Id: 4529dcdd-8b08-41ca-903d-38fb471d7d27\r\nX-Content-Type-Options: nosniff\r\nX-Frame-Options: DENY\r\nX-Xss-Protection: 1; mode\u003dblock\r\nReferrer-Policy: strict-origin-when-cross-origin\r\nRatelimit-Policy: 100;w\u003d60\r\nRatelimit-Limit: 100\r\nRatelimit-Remaining: 94\r\nRatelimit-Reset: 59\r\nEtag: W/\"2fb-zJ/iiAzm4zf7SruyfEtNo0xEDoY\"\r\nVia: 1.1 vegur\r\nCache-Control: max-age\u003d14400\r\nCF-Cache-Status: HIT\r\nAge: 860\r\nVary: Accept-Encoding\r\nServer: cloudflare\r\nCF-RAY: 95c42d6d2986a64c-MIA\r\nserver-timing: cfL4;desc\u003d\"?proto\u003dTCP\u0026rtt\u003d62741\u0026min_rtt\u003d60470\u0026rtt_var\u003d24298\u0026sent\u003d5\u0026recv\u003d6\u0026lost\u003d0\u0026retrans\u003d0\u0026sent_bytes\u003d3107\u0026recv_bytes\u003d698\u0026delivery_rate\u003d72432\u0026cwnd\u003d252\u0026unsent_bytes\u003d0\u0026cid\u003db943073f6bcffd76\u0026ts\u003d105\u0026x\u003d0\"\r","responseCookies":"\r","responseBody":"{\n    \"page\": 1,\n    \"per_page\": 6,\n    \"total\": 12,\n    \"total_pages\": 2,\n    \"data\": [\n        {\n            \"id\": 1,\n            \"name\": \"cerulean\",\n            \"year\": 2000,\n            \"color\": \"#98B2D1\",\n            \"pantone_value\": \"15-4020\"\n        },\n        {\n            \"id\": 2,\n            \"name\": \"fuchsia rose\",\n            \"year\": 2001,\n            \"color\": \"#C74375\",\n            \"pantone_value\": \"17-2031\"\n        },\n        {\n            \"id\": 3,\n            \"name\": \"true red\",\n            \"year\": 2002,\n            \"color\": \"#BF1932\",\n            \"pantone_value\": \"19-1664\"\n        },\n        {\n            \"id\": 4,\n            \"name\": \"aqua sky\",\n            \"year\": 2003,\n            \"color\": \"#7BC4C4\",\n            \"pantone_value\": \"14-4811\"\n        },\n        {\n            \"id\": 5,\n            \"name\": \"tigerlily\",\n            \"year\": 2004,\n            \"color\": \"#E2583E\",\n            \"pantone_value\": \"17-1456\"\n        },\n        {\n            \"id\": 6,\n            \"name\": \"blue turquoise\",\n            \"year\": 2005,\n            \"color\": \"#53B0AE\",\n            \"pantone_value\": \"15-5217\"\n        }\n    ],\n    \"support\": {\n        \"url\": \"https://contentcaddy.io?utm_source\u003dreqres\u0026utm_medium\u003djson\u0026utm_campaign\u003dreferral\",\n        \"text\": \"Tired of writing endless social media content? Let Content Caddy generate it for you.\"\n    }\n}","statusCode":200},"precondition":false,"level":3}]},{"number":5,"description":"Aleblanco executes a GET on the resource api/unknown","duration":277,"startTime":"2025-07-08T20:51:39.323831200-05:00[America/Bogota]","result":"SUCCESS","precondition":false,"level":2,"children":[{"number":6,"description":"GET https://reqres.in/api/unknown","duration":0,"startTime":"2025-07-08T20:51:39.600583500-05:00[America/Bogota]","result":"SUCCESS","restQuery":{"method":"GET","path":"https://reqres.in/api/unknown","content":"","contentType":"application/json","requestHeaders":"x-api-key\u003dreqres-free-v1\r\n\t\t\t\tAccept\u003d*/*\r\n\t\t\t\tContent-Type\u003dapplication/json","requestCookies":"","responseHeaders":"Date: Wed, 09 Jul 2025 01:51:39 GMT\r\nContent-Type: application/json; charset\u003dutf-8\r\nTransfer-Encoding: chunked\r\nConnection: keep-alive\r\nContent-Encoding: gzip\r\nReport-To: {\"group\":\"heroku-nel\",\"max_age\":3600,\"endpoints\":[{\"url\":\"https://nel.heroku.com/reports?ts\u003d1752025039\u0026sid\u003dc4c9725f-1ab0-44d8-820f-430df2718e11\u0026s\u003dtLelf4aZ96rjg55WddoxrXxq3S2Gykt4dyGbZE4zR3U%3D\"}]}\r\nReporting-Endpoints: heroku-nel\u003dhttps://nel.heroku.com/reports?ts\u003d1752025039\u0026sid\u003dc4c9725f-1ab0-44d8-820f-430df2718e11\u0026s\u003dtLelf4aZ96rjg55WddoxrXxq3S2Gykt4dyGbZE4zR3U%3D\r\nNel: {\"report_to\":\"heroku-nel\",\"max_age\":3600,\"success_fraction\":0.005,\"failure_fraction\":0.05,\"response_headers\":[\"Via\"]}\r\nAccess-Control-Allow-Origin: *\r\nX-Request-Id: 4529dcdd-8b08-41ca-903d-38fb471d7d27\r\nX-Content-Type-Options: nosniff\r\nX-Frame-Options: DENY\r\nX-Xss-Protection: 1; mode\u003dblock\r\nReferrer-Policy: strict-origin-when-cross-origin\r\nRatelimit-Policy: 100;w\u003d60\r\nRatelimit-Limit: 100\r\nRatelimit-Remaining: 94\r\nRatelimit-Reset: 59\r\nEtag: W/\"2fb-zJ/iiAzm4zf7SruyfEtNo0xEDoY\"\r\nVia: 1.1 vegur\r\nCache-Control: max-age\u003d14400\r\nCF-Cache-Status: HIT\r\nAge: 860\r\nVary: Accept-Encoding\r\nServer: cloudflare\r\nCF-RAY: 95c42d6ee905a551-MIA\r\nserver-timing: cfL4;desc\u003d\"?proto\u003dTCP\u0026rtt\u003d64919\u0026min_rtt\u003d62462\u0026rtt_var\u003d25179\u0026sent\u003d5\u0026recv\u003d6\u0026lost\u003d0\u0026retrans\u003d0\u0026sent_bytes\u003d3106\u0026recv_bytes\u003d725\u0026delivery_rate\u003d70122\u0026cwnd\u003d90\u0026unsent_bytes\u003d0\u0026cid\u003d6071451076a8834b\u0026ts\u003d109\u0026x\u003d0\"\r","responseCookies":"\r","responseBody":"{\n    \"page\": 1,\n    \"per_page\": 6,\n    \"total\": 12,\n    \"total_pages\": 2,\n    \"data\": [\n        {\n            \"id\": 1,\n            \"name\": \"cerulean\",\n            \"year\": 2000,\n            \"color\": \"#98B2D1\",\n            \"pantone_value\": \"15-4020\"\n        },\n        {\n            \"id\": 2,\n            \"name\": \"fuchsia rose\",\n            \"year\": 2001,\n            \"color\": \"#C74375\",\n            \"pantone_value\": \"17-2031\"\n        },\n        {\n            \"id\": 3,\n            \"name\": \"true red\",\n            \"year\": 2002,\n            \"color\": \"#BF1932\",\n            \"pantone_value\": \"19-1664\"\n        },\n        {\n            \"id\": 4,\n            \"name\": \"aqua sky\",\n            \"year\": 2003,\n            \"color\": \"#7BC4C4\",\n            \"pantone_value\": \"14-4811\"\n        },\n        {\n            \"id\": 5,\n            \"name\": \"tigerlily\",\n            \"year\": 2004,\n            \"color\": \"#E2583E\",\n            \"pantone_value\": \"17-1456\"\n        },\n        {\n            \"id\": 6,\n            \"name\": \"blue turquoise\",\n            \"year\": 2005,\n            \"color\": \"#53B0AE\",\n            \"pantone_value\": \"15-5217\"\n        }\n    ],\n    \"support\": {\n        \"url\": \"https://contentcaddy.io?utm_source\u003dreqres\u0026utm_medium\u003djson\u0026utm_campaign\u003dreferral\",\n        \"text\": \"Tired of writing endless social media content? Let Content Caddy generate it for you.\"\n    }\n}","statusCode":200},"precondition":false,"level":3}]}]}]},{"number":7,"description":"Then the response status code should be 200","duration":15,"startTime":"2025-07-08T20:51:39.610249900-05:00[America/Bogota]","result":"SUCCESS","precondition":false,"level":0,"children":[{"number":8,"description":"Then apis questions$$ lambda$888/0x000000084069e440 should be (200)","duration":3,"startTime":"2025-07-08T20:51:39.620710200-05:00[America/Bogota]","result":"SUCCESS","precondition":false,"level":1}]}],"userStory":{"id":"reqres-api-testing","storyName":"Reqres API Testing","displayName":"Reqres API Testing","path":"api/reqres/testing_api.feature","narrative":"  Testing different REST endpoints of Reqres API to validate expected behavior","type":"feature","qualifiedTag":{"name":"Reqres/Reqres API Testing","type":"feature","displayName":"Reqres/Reqres API Testing"}},"featureTag":{"name":"Reqres/Reqres API Testing","type":"feature","displayName":"Reqres/Reqres API Testing"},"title":"Get list of resources","description":"","tags":[{"name":"Reqres/Reqres API Testing","type":"feature","displayName":"Reqres API Testing"},{"name":"all","type":"tag","displayName":"all"},{"name":"get","type":"tag","displayName":"get"},{"name":"Api/Reqres","type":"capability","displayName":"Reqres"},{"name":"Api","type":"theme","displayName":"Api"}],"allTags":[{"name":"Reqres/Reqres API Testing","type":"feature","displayName":"Reqres API Testing"},{"name":"all","type":"tag","displayName":"all"},{"name":"get","type":"tag","displayName":"get"},{"name":"Api/Reqres","type":"capability","displayName":"Reqres"},{"name":"Api","type":"theme","displayName":"Api"}],"startTime":"2025-07-08T20:51:39.034744600-05:00[America/Bogota]","duration":591,"projectKey":"","isManualTestingUpToDate":false,"context":"windows","manual":false,"testSource":"Cucumber","actors":[{"name":"Aleblanco","can":["browse the web","call an API at https://reqres.in/"]}],"result":"SUCCESS"}